// Jest Snapshot v1, https://goo.gl/fbAQLP

exports[`<Checkbox /> component should render with necessary elements 1`] = `
<div
  className="lba-checkbox lba-checkbox--required"
>
  <label
    className="lba-checkbox-wrapper"
  >
    <input
      className="lba-checkbox-native-control"
      disabled={false}
      name="feature"
      onBlur={[Function]}
      onChange={[Function]}
      onFocus={[Function]}
      type="checkbox"
    />
    <span
      aria-hidden={true}
      className="lba-checkbox-control"
    />
    <span
      className="lba-checkbox-label"
    >
      Claws
    </span>
  </label>
  <div
    aria-live="polite"
    className="lba-checkbox-error"
    role="alert"
  >
    Please accept the terms.
  </div>
  <small
    className="lba-checkbox-help-text"
  >
    Lorem
  </small>
</div>
`;
